{
    "name": "Radio",
    "alias": "radio",
    "description": "",
    "keywords": [],
    "active": 1,
    "order": 6,
    "providers": [
        "App\\Modules\\Radio\\Providers\\RadioServiceProvider"
    ],
    "aliases": {},
    "files": [
        "start.php"
    ],
    "requires": []
}
